…
## Joining data

Summary Stats

The state with the largest average drug overdose death rate was West Virgina, followed by Kentucky. Surprisingly, counties in Kentucky have on average more opioid prescriptions than people. I computed many state and national averages for the variables in this data set, but I think the correlation matrix is the most interesting by far. The correlation between median income and percentage people lacking a high school was strongly negative at -0.57 as would be expected. The correlation between death rate and prescription rate was 0.27 suggeting that with more opioids available people are more likely to overdose. There is also a negative correlation between prescription rate and median income, suggesting that poor counties have more opioid prescriptions.

## state level
fulldata %>% group_by(state) %>% summarise(AveragePrate = mean(prate), 
    MedianIncome = mean(newincome), AverageDeathRate = mean(deathrate)) %>% 
    arrange(desc(AverageDeathRate))

## # A tibble: 51 x 4
##    state AveragePrate MedianIncome AverageDeathRate
##    <chr>        <dbl>        <dbl>            <dbl>
##  1 " DC"         32.5       80153              37.1
##  2 " WV"         87.5       41752.             36.4
##  3 " KY"        103.        43486.             31.6
##  4 " MD"         73.8       73003.             29.9
##  5 " MA"         51.4       73367.             29.1
##  6 " OH"         73.3       53756.             27.8
##  7 " DE"         81.2       61692.             27.8
##  8 " PA"         71.8       54338.             27.5
##  9 " NM"         62.1       43376.             27.0
## 10 " NH"         67.4       65589.             27.0
## # ... with 41 more rows
…
